01,Lion,Singa,male,120,110,healthy
02,Dragon,Drake,male,200000, 15500,not healthy
03,Bear,Kuma,female,190,120,healthy
04,Horse,Dash,male,140,100,not healthy
05,Elephant,Tusk,female,330,6000,not healthy
06,Reindeer,Chopper,male,100,45,healthy
07,Orang Utan,Otan,male,130,60,not healthy
08,Tiger,Macan,male,120,100,healthy
